\relax 
\providecommand\hyper@newdestlabel[2]{}
\catcode `:\active 
\catcode `;\active 
\catcode `!\active 
\catcode `?\active 
\providecommand\HyperFirstAtBeginDocument{\AtBeginDocument}
\HyperFirstAtBeginDocument{\ifx\hyper@anchor\@undefined
\global\let\oldcontentsline\contentsline
\gdef\contentsline#1#2#3#4{\oldcontentsline{#1}{#2}{#3}}
\global\let\oldnewlabel\newlabel
\gdef\newlabel#1#2{\newlabelxx{#1}#2}
\gdef\newlabelxx#1#2#3#4#5#6{\oldnewlabel{#1}{{#2}{#3}}}
\AtEndDocument{\ifx\hyper@anchor\@undefined
\let\contentsline\oldcontentsline
\let\newlabel\oldnewlabel
\fi}
\fi}
\global\let\hyper@last\relax 
\gdef\HyperFirstAtBeginDocument#1{#1}
\providecommand\HyField@AuxAddToFields[1]{}
\providecommand\HyField@AuxAddToCoFields[2]{}
\babel@aux{french}{}
\babel@aux{british}{}
\@writefile{toc}{\contentsline {section}{\numberline {1}Introduction}{2}{section.0.1}\protected@file@percent }
\@writefile{toc}{\contentsline {section}{\numberline {2}Contexte}{2}{section.0.2}\protected@file@percent }
\@writefile{toc}{\contentsline {subsection}{\numberline {2.1}Prise de vue en astrophysique}{2}{subsection.0.2.1}\protected@file@percent }
\@writefile{toc}{\contentsline {subsection}{\numberline {2.2}Sources de bruit}{2}{subsection.0.2.2}\protected@file@percent }
\@writefile{toc}{\contentsline {subsection}{\numberline {2.3}Solutions}{2}{subsection.0.2.3}\protected@file@percent }
\@writefile{toc}{\contentsline {section}{\numberline {3}Impl\IeC {\'e}mentations num\IeC {\'e}riques}{2}{section.0.3}\protected@file@percent }
\@writefile{toc}{\contentsline {subsection}{\numberline {3.1}Dark, Flat, Offsets}{2}{subsection.0.3.1}\protected@file@percent }
\@writefile{toc}{\contentsline {subsection}{\numberline {3.2}Stacking}{2}{subsection.0.3.2}\protected@file@percent }
\@writefile{toc}{\contentsline {subsection}{\numberline {3.3}V\IeC {\'e}rifications des algorithmes}{2}{subsection.0.3.3}\protected@file@percent }
\@writefile{toc}{\contentsline {section}{\numberline {4}Mise en pratique et observations \IeC {\`a} l'O.M.P}{2}{section.0.4}\protected@file@percent }
\@writefile{toc}{\contentsline {subsection}{\numberline {4.1}Objets \IeC {\'e}tudi\IeC {\'e}s}{2}{subsection.0.4.1}\protected@file@percent }
\@writefile{toc}{\contentsline {subsection}{\numberline {4.2}R\IeC {\'e}sultats obtenus}{2}{subsection.0.4.2}\protected@file@percent }
\@writefile{toc}{\contentsline {section}{\numberline {5}Conclusion}{2}{section.0.5}\protected@file@percent }
\newlabel{LastPage}{{}{2}{}{page.2}{}}
\xdef\lastpage@lastpage{2}
\xdef\lastpage@lastpageHy{2}
\global\mtcsecondpartfalse
